
<svg width="24px" height="24px" viewBox="0 0 24 24" version="1.1" xmlns="http://www.w3.org/2000/svg" xmlns:xlink="http://www.w3.org/1999/xlink">
    <g id="Page-1" stroke="none" stroke-width="1" fill="none" fill-rule="evenodd">
        <g id="Desktop-HD" transform="translate(-1047.000000, -24.000000)">
            <g id="Group-3">
                <g id="Group-31" transform="translate(195.000000, 8.000000)">
                    <g id="Group-35" transform="translate(852.000000, 16.000000)">
                        <g id="Group-36">
                            <circle id="Oval" fill="#D8D8D8" cx="12" cy="12" r="12"></circle>
                            <g id="Group-33" transform="translate(5.000000, 5.000000)" fill="#9E9E9E">
                                <path d="M7,6.22222222 C5.28178078,6.22222222 3.88888889,4.82933033 3.88888889,3.11111111 C3.88888889,1.39289189 5.28178078,0 7,0 C8.71821922,0 10.1111111,1.39289189 10.1111111,3.11111111 C10.1111111,4.82933033 8.71821922,6.22222222 7,6.22222222 Z" id="Mask"></path>
                                <path d="M0.000506865559,13.3771599 C0.301978853,9.6650679 3.31482071,7.77777778 6.98704326,7.77777778 C10.7109461,7.77777778 13.7704651,9.56137222 13.9983778,13.3777778 C14.0074573,13.5298132 13.9983778,14 13.4140999,14 C10.5319853,14 6.24923034,14 0.565835066,14 C0.370776121,14 -0.0159146948,13.5793622 0.000506865559,13.3771599 Z" id="Mask-Copy"></path>
                            </g>
                        </g>
                    </g>
                </g>
            </g>
        </g>
    </g>
</svg>